{
    "key": "group_56f43a292d619",
    "title": "Tathata Certified Theme Settings",
    "fields": [
        {
            "key": "field_56f43b3bed618",
            "label": "Support & Affiliation",
            "name": "",
            "type": "tab",
            "instructions": "",
            "required": 0,
            "conditional_logic": 0,
            "wrapper": {
                "width": "",
                "class": "",
                "id": ""
            },
            "placement": "left",
            "endpoint": 0
        },
        {
            "key": "field_56f46398746ee",
            "label": "Section Title",
            "name": "ts_title",
            "type": "text",
            "instructions": "Enter a section title",
            "required": 0,
            "conditional_logic": 0,
            "wrapper": {
                "width": "",
                "class": "",
                "id": ""
            },
            "default_value": "Support & Affiliation",
            "placeholder": "Support & Affiliation",
            "prepend": "",
            "append": "",
            "maxlength": "",
            "readonly": 0,
            "disabled": 0
        },
        {
            "key": "field_56f43acced616",
            "label": "Tathata Supporters",
            "name": "tathata_supporters",
            "type": "repeater",
            "instructions": "Add logos of supporting and affiliated companies. This will appear near the footer of designated pages",
            "required": 0,
            "conditional_logic": 0,
            "wrapper": {
                "width": "",
                "class": "",
                "id": ""
            },
            "collapsed": "field_56f43b0aed617",
            "min": "",
            "max": "",
            "layout": "block",
            "button_label": "Add Supporter",
            "sub_fields": [
                {
                    "key": "field_56f43b0aed617",
                    "label": "Logo",
                    "name": "ts_logo",
                    "type": "image",
                    "instructions": "Upload a logo for the supporter",
                    "required": 0,
                    "conditional_logic": 0,
                    "wrapper": {
                        "width": "",
                        "class": "",
                        "id": ""
                    },
                    "return_format": "url",
                    "preview_size": "thumbnail",
                    "library": "all",
                    "min_width": "",
                    "min_height": "",
                    "min_size": "",
                    "max_width": "",
                    "max_height": "",
                    "max_size": "",
                    "mime_types": ""
                }
            ]
        }
    ],
    "location": [
        [
            {
                "param": "options_page",
                "operator": "==",
                "value": "tathata-settings"
            }
        ]
    ],
    "menu_order": 0,
    "position": "normal",
    "style": "default",
    "label_placement": "top",
    "instruction_placement": "label",
    "hide_on_screen": [
        "permalink",
        "the_content",
        "excerpt",
        "custom_fields",
        "discussion",
        "comments",
        "revisions",
        "slug",
        "author",
        "format",
        "page_attributes",
        "featured_image",
        "categories",
        "tags",
        "send-trackbacks"
    ],
    "active": 1,
    "description": "Manage universal settings for Tathata Golf",
    "modified": 1460659009
}